{
  "iisSettings": {
    "windowsAuthentication": true,
    "anonymousAuthentication": true,
    "iis": {
      "applicationUrl": "http://localhost/AMANAH.DMS.API",
      "sslPort": 0
    },
    "iisExpress": {
      "applicationUrl": "http://localhost:5000",
      "sslPort": 44337
    }
  },
  "profiles": {
    "IIS Express": {
      "commandName": "IISExpress",
      "launchBrowser": true,
      "launchUrl": "swagger",
      "environmentVariables": {
        "ASPNETCORE_ENVIRONMENT": "Development"
      }
    },
    "AMANAH.DMS.API": {
      "commandName": "Project",
      "launchBrowser": true,
      "environmentVariables": {
        "ASPNETCORE_ENVIRONMENT": "Development"
      },
      "applicationUrl": "https://localhost:5001;http://localhost:5000"
    },
    "IIS": {
      "commandName": "IIS",
      "launchBrowser": true,
      "launchUrl": "swagger",
      "environmentVariables": {
        "ASPNETCORE_ENVIRONMENT": "Development"
      }
    }
  }
}